<svg width="60" height="71" viewBox="0 0 60 71" fill="none" xmlns="http://www.w3.org/2000/svg">
<path d="M59.8028 46.8319C59.6302 44.4161 57.8554 42.4194 55.5136 41.9757C58.1512 40.6692 59.9754 37.9329 59.9754 34.7776C59.9754 30.3405 56.3763 26.7415 51.9392 26.7415H43.2621C43.977 25.6075 44.5193 24.375 44.9137 23.0685C45.3821 21.4416 45.5793 19.7653 45.456 18.0644C47.5021 17.3249 48.8825 15.4268 49.4248 13.1343C49.8932 11.1622 49.7206 8.91897 48.8332 6.89761C48.143 5.34461 47.2802 3.86556 46.2695 2.53442C46.2202 2.53442 46.1709 2.50977 46.1216 2.50977C46.4914 3.89021 44.9877 5.1474 43.5579 5.1474C43.484 5.1474 43.3854 5.1474 43.3114 5.1474C41.8077 4.9995 40.5998 3.91486 39.5152 2.87953C38.4306 1.8442 37.2473 0.734911 35.7436 0.513054C35.6204 0.488403 35.4971 0.488403 35.3985 0.488403C33.9934 0.488403 32.539 1.62234 32.7855 2.97813C30.6902 1.91815 28.2991 0.858165 26.0312 0.858165C24.9959 0.858165 24.0099 1.08002 23.0978 1.62234C22.1364 2.18931 21.3722 3.05208 20.6574 3.91486C19.7946 4.90089 18.9565 5.88692 18.0937 6.87296C17.4281 7.66178 16.7132 8.54921 16.1956 9.46129C16.0723 10.3241 16.1216 11.1868 16.3928 12.0003C16.6393 12.6905 17.1076 13.2822 17.6993 13.7259C17.5267 14.1696 17.3788 14.6133 17.2309 15.057C16.1709 18.7546 16.59 22.6495 18.4388 26.0266C18.562 26.2485 18.6853 26.4703 18.8332 26.6922L12.1035 26.7661C5.42317 26.7661 0 32.1893 0 38.8697V62.2879C0 66.7251 3.59901 70.3241 8.03615 70.3241H25.5382C25.5875 70.3241 25.6368 70.3241 25.6861 70.3241H50.7067V65.9855H55.0698V58.0726C57.7321 57.8508 59.8274 55.6076 59.8274 52.896V47.2016C59.8274 47.1277 59.8274 47.0537 59.8274 47.0044C59.8274 46.9551 59.8274 46.9058 59.8028 46.8319ZM57.7814 46.9551C57.7321 47.3742 57.3624 47.67 56.9433 47.67H55.5136V44.0463C56.7708 44.4901 57.6828 45.5993 57.7814 46.9551ZM51.9638 28.7875C55.2671 28.7875 57.954 31.4744 57.954 34.7776C57.954 38.0808 55.2671 40.7678 51.9638 40.7678H45.037H43.7305C40.4273 40.7678 37.7403 38.0808 37.7403 34.7776C37.7403 34.26 37.8143 32.9535 38.4059 31.4744C39.6631 30.7349 40.7724 29.8228 41.7338 28.7875H51.9638ZM16.1463 39.3873C16.1463 38.6232 16.7625 37.9822 17.5514 37.9822H36.3599C36.8283 39.0422 37.5185 40.0036 38.3813 40.7678H17.5514C16.7872 40.7924 16.1463 40.1515 16.1463 39.3873ZM18.1676 10.1515C18.6113 9.43664 19.1783 8.77107 19.622 8.22875L20.9039 6.7497L22.1857 5.27066C22.8759 4.45718 23.4675 3.81626 24.1085 3.42185C24.6508 3.10139 25.2917 2.92883 26.0312 2.92883C27.8554 2.92883 30 3.89021 31.8488 4.82694L35.5218 6.7004L34.8069 2.80558C34.9055 2.70697 35.152 2.58372 35.3985 2.58372C35.4232 2.58372 35.4478 2.58372 35.4725 2.58372C36.2859 2.70697 37.1241 3.4465 38.1101 4.40788C39.4906 5.71437 40.9943 7.02086 43.1142 7.24272C43.2621 7.26737 43.41 7.26737 43.5579 7.26737C44.5193 7.26737 45.5053 6.94691 46.2942 6.40459C46.5407 6.87296 46.7625 7.34132 46.9844 7.80969C47.65 9.33803 47.8225 11.1375 47.4528 12.7645C47.2556 13.6273 46.3681 16.4375 43.5579 16.4375C42.7691 16.4375 41.9063 16.2156 40.9943 15.7965C39.0961 14.9091 37.5678 13.3068 36.1873 11.7292C36.0394 11.5566 35.8669 11.3594 35.719 11.1868C34.4371 9.68314 32.9581 7.98224 30.9614 6.89761C30.4191 6.6018 29.8274 6.35529 29.2358 6.20739C28.4963 6.01018 27.7568 5.88692 27.0173 5.88692C25.2671 5.88692 23.6894 6.50319 22.5555 7.63713C21.668 8.52456 21.175 9.58454 20.7067 10.5459C20.2876 11.4087 19.9178 12.2222 19.4988 12.3454C19.4741 12.3454 19.4495 12.3701 19.4002 12.3701C19.0551 12.3701 18.4881 11.951 18.2909 11.4087C18.1676 10.9896 18.143 10.5952 18.1676 10.1515ZM19.1783 15.6486C19.3016 15.2049 19.4741 14.7612 19.6467 14.3175C19.8192 14.2928 19.9671 14.2682 20.1397 14.2189C22.235 13.5287 22.4322 10.5706 23.9852 9.01757C24.774 8.22875 25.8833 7.88364 27.0173 7.88364C27.5596 7.88364 28.1265 7.95759 28.6689 8.13015C29.1372 8.2534 29.5563 8.42595 29.9754 8.64781C31.8488 9.68314 33.2293 11.4087 34.6343 13.0357C36.212 14.8598 37.9376 16.61 40.1315 17.6207C41.3147 18.1877 42.424 18.4342 43.4347 18.4588C43.5086 19.8393 43.3607 21.2197 42.9663 22.5509C42.0542 25.7308 39.9343 28.3438 37.0501 29.9461C34.166 31.5484 30.8135 31.9181 27.6335 30.9814C24.4536 30.0693 21.8406 27.9494 20.2383 25.0652C18.636 22.1564 18.2662 18.8039 19.1783 15.6486ZM8.03615 68.3027C4.73295 68.3027 2.04602 65.5911 2.04602 62.2879V38.8697C2.04602 33.3232 6.55711 28.7875 12.1282 28.7875L20.3615 28.7135C22.1364 30.7103 24.4536 32.1647 27.0666 32.9288C28.3977 33.3232 29.7535 33.4958 31.1093 33.4958C32.7609 33.4958 34.3878 33.2246 35.9408 32.6577C35.7436 33.5698 35.719 34.3093 35.719 34.8023C35.719 35.1967 35.7436 35.5911 35.8176 35.9855H17.5514C15.6532 35.9855 14.1249 37.5139 14.1249 39.412C14.1249 39.4859 14.1249 39.5845 14.1495 39.6585V56.3224H25.5629C28.8661 56.3224 31.553 59.0094 31.553 62.3126C31.553 65.6158 28.8661 68.3027 25.5629 68.3027H8.03615ZM30.8874 68.3027C32.539 66.8237 33.5744 64.679 33.5744 62.3126C33.5744 57.8754 29.9754 54.2764 25.5382 54.2764H16.1709V52.2797H22.7527L26.3763 48.656H31.0107V50.6034H37.3213V44.2928H31.0107V46.61H25.5136L21.8899 50.2337H16.1709V42.518C16.59 42.7152 17.0583 42.8138 17.5514 42.8138H43.7305H45.037H51.9638C52.4815 42.8138 52.9992 42.7645 53.4922 42.6659V47.6947H50.5341V42.9124H48.4881V47.6947H44.7412C43.3607 47.6947 42.0296 48.237 41.0682 49.223C40.0822 50.209 39.5399 51.5155 39.5399 52.9206V53.0192C39.5399 54.375 40.0575 55.6569 41.0189 56.6182C41.9803 57.5796 43.2621 58.0973 44.6179 58.0973H48.6606V62.0168H43.1389V64.0628H48.6606V68.3027H30.8874ZM33.032 48.5574V46.3142H35.2753V48.5574H33.032ZM50.7067 63.9642V58.1219H53.0238V63.9642H50.7067ZM57.7814 52.896C57.7814 54.6462 56.3517 56.0759 54.6015 56.0759H44.6179C43.8044 56.0759 43.0403 55.7555 42.4733 55.1885C41.9063 54.6215 41.5859 53.8573 41.5859 53.0439V52.9453C41.5859 52.0825 41.9063 51.2937 42.5226 50.6774C43.1142 50.0858 43.9277 49.7407 44.7658 49.7407H56.968C57.2638 49.7407 57.5349 49.6914 57.8061 49.6174V52.896H57.7814Z" fill="url(#paint0_linear)"/>
<path d="M28.8168 26.9387C29.5563 27.1605 30.3205 27.2591 31.06 27.2591C33.1307 27.2591 35.152 26.4703 36.6804 25.0406L35.2753 23.5615C33.6976 25.0406 31.4298 25.5829 29.3591 24.9913C27.2884 24.3997 25.6615 22.7234 25.1192 20.6281L23.1471 21.1457C23.8866 23.9066 26.0312 26.1252 28.8168 26.9387Z" fill="url(#paint1_linear)"/>
<path d="M29.7535 15.3528L26.6968 14.4654L26.1298 16.4128L29.1865 17.3002L29.7535 15.3528Z" fill="url(#paint2_linear)"/>
<path d="M37.2473 17.5221L34.1906 16.6347L33.6237 18.5821L36.6804 19.4695L37.2473 17.5221Z" fill="url(#paint3_linear)"/>
<path d="M41.0189 62.0168H38.9729V64.0628H41.0189V62.0168Z" fill="url(#paint4_linear)"/>
<path d="M46.8118 51.9592H44.7658V54.0052H46.8118V51.9592Z" fill="url(#paint5_linear)"/>
<defs>
<linearGradient id="paint0_linear" x1="0" y1="35.4232" x2="59.9905" y2="35.4232" gradientUnits="userSpaceOnUse">
<stop stop-color="#81B0EF"/>
<stop offset="1" stop-color="#38D6D1"/>
</linearGradient>
<linearGradient id="paint1_linear" x1="23.1672" y1="23.9242" x2="36.6794" y2="23.9242" gradientUnits="userSpaceOnUse">
<stop stop-color="#81B0EF"/>
<stop offset="1" stop-color="#38D6D1"/>
</linearGradient>
<linearGradient id="paint2_linear" x1="26.133" y1="15.8797" x2="29.7509" y2="15.8797" gradientUnits="userSpaceOnUse">
<stop stop-color="#81B0EF"/>
<stop offset="1" stop-color="#38D6D1"/>
</linearGradient>
<linearGradient id="paint3_linear" x1="33.6307" y1="18.0521" x2="37.2484" y2="18.0521" gradientUnits="userSpaceOnUse">
<stop stop-color="#81B0EF"/>
<stop offset="1" stop-color="#38D6D1"/>
</linearGradient>
<linearGradient id="paint4_linear" x1="38.9791" y1="63.0305" x2="41.0332" y2="63.0305" gradientUnits="userSpaceOnUse">
<stop stop-color="#81B0EF"/>
<stop offset="1" stop-color="#38D6D1"/>
</linearGradient>
<linearGradient id="paint5_linear" x1="44.772" y1="52.9648" x2="46.8261" y2="52.9648" gradientUnits="userSpaceOnUse">
<stop stop-color="#81B0EF"/>
<stop offset="1" stop-color="#38D6D1"/>
</linearGradient>
</defs>
</svg>
