<svg width="18" height="20" viewBox="0 0 18 20" fill="none" xmlns="http://www.w3.org/2000/svg">
<path fill-rule="evenodd" clip-rule="evenodd" d="M6.67937 0.20285C5.29865 0.20285 4.17937 1.32214 4.17937 2.70285V3.804H2.57812C1.19741 3.804 0.078125 4.92329 0.078125 6.304V17.3088C0.078125 18.6895 1.19741 19.8088 2.57813 19.8088H11.0821C12.4628 19.8088 13.5821 18.6895 13.5821 17.3088V15.7075H14.6832C16.0639 15.7075 17.1832 14.5882 17.1832 13.2075V2.70285C17.1832 1.32214 16.0639 0.20285 14.6832 0.20285H6.67937ZM13.5821 14.7075H14.6832C15.5116 14.7075 16.1832 14.0359 16.1832 13.2075V2.70285C16.1832 1.87442 15.5116 1.20285 14.6832 1.20285H6.67937C5.85094 1.20285 5.17937 1.87442 5.17937 2.70285V3.804H11.0821C12.4628 3.804 13.5821 4.92329 13.5821 6.304V14.7075ZM1.07812 6.304C1.07812 5.47557 1.7497 4.804 2.57812 4.804H11.0821C11.9106 4.804 12.5821 5.47557 12.5821 6.304V17.3088C12.5821 18.1372 11.9106 18.8088 11.0821 18.8088H2.57813C1.7497 18.8088 1.07812 18.1372 1.07812 17.3088V6.304ZM10.0812 8.73829H3.57909V7.73829H10.0812V8.73829ZM3.57909 11.2726H10.0812V10.2726H3.57909V11.2726ZM10.0812 13.7393H3.57909V12.7393H10.0812V13.7393ZM5.32965 16.2686H8.33061V15.2686H5.32965V16.2686Z" fill="url(#paint0_linear)"/>
<defs>
<linearGradient id="paint0_linear" x1="0.078125" y1="10.2923" x2="17.1677" y2="10.8074" gradientUnits="userSpaceOnUse">
<stop stop-color="#81B0EF"/>
<stop offset="1" stop-color="#38D6D1"/>
</linearGradient>
</defs>
</svg>
