<svg width="36" height="35" viewBox="0 0 36 35" fill="none" xmlns="http://www.w3.org/2000/svg">
<circle cx="17.7634" cy="17.5" r="16.5" fill="#696C97" stroke="#C2C4DA" stroke-width="2"/>
<path fill-rule="evenodd" clip-rule="evenodd" d="M17.7634 2C26.3113 2 33.2634 8.9521 33.2634 17.5C33.2634 26.0479 26.3113 33 17.7634 33C9.21553 33 2.26343 26.0405 2.26343 17.5C2.26343 8.95949 9.21553 2 17.7634 2ZM22.1076 28.22L21.4279 28.944C20.4822 29.9488 19.145 30.525 17.7634 30.525C16.3819 30.525 15.0446 29.9488 14.099 28.944L13.4341 28.2347V31.5741C14.8008 31.9952 16.2563 32.2243 17.7634 32.2243C19.278 32.2243 20.7334 31.9952 22.1076 31.5741V28.22ZM11.8456 26.5503V30.9831C12.0968 31.0939 12.348 31.1973 12.5992 31.286V27.3482L11.8456 26.5503ZM23.6886 26.5355L22.935 27.3334V31.2786C23.1862 31.1826 23.4374 31.0791 23.6886 30.9683V26.5355ZM10.2572 24.7624V30.163C10.501 30.3108 10.7522 30.4511 11.0108 30.5841V25.6637C10.7448 25.3682 10.4936 25.0727 10.2572 24.7624ZM25.277 24.7402C25.0406 25.0505 24.7894 25.3534 24.5234 25.6416V30.5694C24.782 30.4364 25.0332 30.296 25.277 30.1482V24.7402ZM12.843 5.90825C11.4245 6.50667 10.1242 7.37846 8.9865 8.47927C9.52582 9.81649 10.8261 10.7622 12.3554 10.7622H12.9465C15.2663 10.7622 17.1502 12.6461 17.1502 14.9659V18.9924C17.1502 19.2214 16.9655 19.4061 16.7365 19.4061C16.5075 19.4061 16.3228 19.2214 16.3228 18.9924V14.9659C16.3228 13.1041 14.8082 11.5896 12.9465 11.5896H12.3554C10.863 11.5896 9.5406 10.8508 8.72792 9.72045V14.6482C8.72792 16.4805 9.73268 18.261 11.491 19.5465C11.6757 19.6795 11.7201 19.9454 11.5797 20.1301C11.4984 20.2409 11.3728 20.3 11.2398 20.3C11.1512 20.3 11.0699 20.2705 10.996 20.2188C10.0208 19.5095 9.25985 18.6525 8.72792 17.7143V17.7216C8.72792 20.4921 9.77701 23.137 11.6757 25.154L14.7048 28.3677C15.4953 29.21 16.6109 29.6902 17.7634 29.6902C18.916 29.6902 20.0315 29.21 20.8221 28.3677L23.8511 25.154C25.7498 23.137 26.7989 20.4921 26.7989 17.7216V17.7143C26.267 18.6525 25.506 19.5095 24.5308 20.2188C24.4569 20.2705 24.3683 20.3 24.287 20.3C24.1614 20.3 24.0358 20.2409 23.9472 20.1301C23.8142 19.9454 23.8511 19.6868 24.0358 19.5465C25.7868 18.261 26.7989 16.4731 26.7989 14.6482V9.72045C25.9863 10.8508 24.6638 11.5896 23.1714 11.5896H22.5804C20.7186 11.5896 19.2041 13.1041 19.2041 14.9659V18.9924C19.2041 19.2214 19.0194 19.4061 18.7904 19.4061C18.5613 19.4061 18.3766 19.2214 18.3766 18.9924V14.9659C18.3766 12.6461 20.2606 10.7622 22.5804 10.7622H23.1714C24.6934 10.7622 26.001 9.81649 26.5404 8.47927C25.4174 7.38584 24.1171 6.52145 22.7134 5.92302C21.317 7.32674 19.5735 8.09509 17.793 8.09509C15.9903 8.09509 14.2394 7.31935 12.843 5.90825ZM8.73531 22.0584V29.1213C8.96433 29.2986 9.19336 29.4685 9.42978 29.6311V23.5508C9.42978 23.536 9.42978 23.5286 9.43716 23.5138C9.16381 23.041 8.92739 22.5608 8.73531 22.0584ZM26.7915 22.0584C26.5921 22.546 26.363 23.0262 26.1045 23.4843C26.1045 23.5064 26.1119 23.5212 26.1119 23.5434V29.6163C26.3409 29.4538 26.5699 29.2912 26.7915 29.1139V22.0584ZM7.90046 6.57316C7.27248 7.14204 6.69622 7.75524 6.17906 8.42016L6.36376 8.63441C7.07301 9.46187 7.07301 10.7474 6.36376 11.5748L6.09779 11.8851L6.36376 12.1954C7.07301 13.0229 7.07301 14.3084 6.36376 15.1358L6.09779 15.4461L6.36376 15.7564C7.07301 16.5839 7.07301 17.8694 6.36376 18.6969L6.09779 19.0071L6.36376 19.3174C7.07301 20.1449 7.07301 21.4304 6.36376 22.2579L6.10518 22.5608C6.8292 23.6246 6.82182 25.117 6.04608 26.1735C6.01653 26.2104 5.97959 26.24 5.94265 26.2695C6.5263 27.0527 7.18383 27.7767 7.90046 28.4268V6.57316ZM27.6264 6.57316V28.4268C28.3504 27.7767 29.0079 27.0527 29.5842 26.2695C29.5473 26.2474 29.5103 26.2104 29.4808 26.1735C28.705 25.117 28.6977 23.6246 29.4217 22.5608L29.1631 22.2579C28.4538 21.4304 28.4538 20.1449 29.1631 19.3174L29.4291 19.0071L29.1631 18.6969C28.4538 17.8694 28.4538 16.5839 29.1631 15.7564L29.4291 15.4461L29.1631 15.1358C28.4538 14.3084 28.4538 13.0229 29.1631 12.1954L29.4291 11.8851L29.1631 11.5748C28.4538 10.7474 28.4538 9.46187 29.1631 8.63441L29.3478 8.42016C28.8306 7.75524 28.247 7.13465 27.6264 6.57316ZM18.9603 26.107C19.1893 26.107 19.374 26.2917 19.374 26.5207C19.374 26.7498 19.1893 26.9345 18.9603 26.9345H16.2932C16.0642 26.9345 15.8795 26.7498 15.8795 26.5207C15.8795 26.2917 16.0642 26.107 16.2932 26.107H18.9603ZM5.52892 23.2183L5.12997 23.6837L4.66452 24.2231C4.90094 24.6885 5.16691 25.1318 5.44765 25.5677C5.88354 24.8658 5.90571 23.9349 5.52892 23.2183ZM29.9979 23.2183C29.6211 23.9349 29.6433 24.8658 30.0792 25.5603C30.3599 25.1244 30.6259 24.6811 30.8623 24.2157L29.9979 23.2183ZM16.5518 21.7555C16.8843 21.6151 17.2684 21.6668 17.6748 21.9032C17.6822 21.9106 17.7191 21.918 17.7708 21.9254C17.8225 21.918 17.8521 21.9106 17.8669 21.9032C18.2658 21.6742 18.6574 21.6225 18.9824 21.7555C19.3001 21.8885 20.6965 22.4943 21.2727 22.8563C21.4574 22.9671 21.5239 23.2035 21.4279 23.3956C21.3835 23.4843 20.3492 25.516 17.7708 25.516C15.1924 25.516 14.1581 23.4843 14.1138 23.3956C14.0177 23.2035 14.0842 22.9745 14.2689 22.8563C14.8378 22.4943 16.2341 21.8885 16.5518 21.7555ZM17.2537 22.6199C17.0911 22.5312 16.9507 22.4943 16.8695 22.5238C16.5444 22.6568 15.6579 23.0484 15.0668 23.3587C15.4288 23.8463 16.2711 24.6811 17.7634 24.6811C19.241 24.6811 20.0906 23.8389 20.46 23.3587C19.869 23.0484 18.9824 22.6642 18.6574 22.5238C18.5835 22.4943 18.4357 22.5312 18.2732 22.6199C18.1107 22.7159 17.9186 22.7455 17.793 22.7529C17.7708 22.7529 17.756 22.7529 17.7339 22.7529C17.6009 22.7455 17.4162 22.7159 17.2537 22.6199ZM18.6869 23.0853C18.916 23.0853 19.1007 23.27 19.1007 23.499C19.1007 23.7281 18.916 23.9128 18.6869 23.9128H16.8325C16.6035 23.9128 16.4188 23.7281 16.4188 23.499C16.4188 23.27 16.6035 23.0853 16.8325 23.0853H18.6869ZM5.53631 19.6425L3.67453 21.7924C3.84446 22.3391 4.03654 22.8711 4.26557 23.3956L5.24079 22.2726L5.72101 21.7185C6.1569 21.2162 6.1569 20.3665 5.72101 19.8715L5.53631 19.6425ZM29.9832 19.6425L29.7911 19.8642C29.3552 20.3665 29.3552 21.2162 29.7911 21.7112L30.2713 22.2653L31.2465 23.3882C31.4755 22.8711 31.675 22.3317 31.8375 21.785L29.9832 19.6425ZM5.53631 16.0815L3.10566 18.8963C3.16476 19.5539 3.26819 20.1966 3.41595 20.8246L3.85923 20.3148L4.47982 19.5982L5.22601 18.7338L5.72839 18.1501C6.16429 17.6478 6.16429 16.7981 5.72839 16.3031L5.53631 16.0815ZM29.9832 16.0815L29.7911 16.3031C29.3552 16.8055 29.3552 17.6551 29.7911 18.1501L31.6602 20.3148L32.1035 20.8246C32.2513 20.1966 32.3547 19.5539 32.4138 18.8963L29.9832 16.0815ZM29.9832 12.5205L29.7911 12.7421C29.3552 13.2445 29.3552 14.0941 29.7911 14.5891L31.6602 16.7538L32.4729 17.6995C32.4729 17.633 32.4729 17.5739 32.4729 17.5074C32.4729 16.7243 32.4138 15.9559 32.2956 15.2097L29.9832 12.5205ZM5.53631 12.5205L3.22387 15.2023C3.10566 15.9485 3.04655 16.7169 3.04655 17.5C3.04655 17.5665 3.04655 17.633 3.04655 17.6921L5.22601 15.1728L5.72839 14.5891C6.16429 14.0867 6.16429 13.2371 5.72839 12.7421L5.53631 12.5205ZM13.0721 12.4762C14.3797 12.4762 15.4436 13.54 15.4436 14.8477V15.1285C15.4436 15.3575 15.2589 15.5422 15.0299 15.5422H12.0303C10.7227 15.5422 9.6588 14.4783 9.6588 13.1706V12.8899C9.6588 12.6609 9.8435 12.4762 10.0725 12.4762H13.0721ZM25.4543 12.4762C25.6833 12.4762 25.868 12.6609 25.868 12.8899V13.1706C25.868 14.4783 24.8042 15.5422 23.4965 15.5422H20.497C20.268 15.5422 20.0833 15.3575 20.0833 15.1285V14.8477C20.0833 13.54 21.1471 12.4762 22.4548 12.4762H25.4543ZM13.0721 13.3036H10.4936C10.5601 14.0867 11.2251 14.7073 12.023 14.7073H14.6014C14.5349 13.9242 13.87 13.3036 13.0721 13.3036ZM25.0332 13.3036H22.4548C21.6495 13.3036 20.992 13.9242 20.9255 14.7073H23.5039C24.3018 14.7073 24.9667 14.0941 25.0332 13.3036ZM29.8576 9.10724L29.7985 9.17374C29.3626 9.67612 29.3626 10.5257 29.7985 11.0207L31.6676 13.1854L31.9336 13.4957C31.4829 11.9073 30.7737 10.4297 29.8576 9.10724ZM5.66929 9.10724C4.75318 10.4297 4.04393 11.9073 3.59327 13.4957L4.29512 12.683L5.72101 11.0281C6.1569 10.5257 6.1569 9.67612 5.72101 9.18112L5.66929 9.10724ZM17.7634 2.77574C14.3576 2.77574 11.2251 3.92827 8.73531 5.87131V7.12726C8.73531 7.26764 8.74269 7.40801 8.75747 7.54838C11.2251 5.30243 14.3945 4.07602 17.7634 4.07602C21.125 4.07602 24.2944 5.30243 26.7694 7.54838C26.7842 7.40801 26.7915 7.26764 26.7915 7.12726V5.87131C24.3018 3.93565 21.1619 2.77574 17.7634 2.77574ZM17.7634 4.91826C16.3597 4.91826 15.0003 5.14728 13.7074 5.58317C14.8969 6.66921 16.3228 7.26764 17.7856 7.26764C19.2336 7.26764 20.6595 6.6766 21.849 5.59795C20.5487 5.14728 19.1745 4.91826 17.7634 4.91826Z" fill="#C2C4DA"/>
</svg>
