<svg width="28" height="20" viewBox="0 0 28 20" fill="none" xmlns="http://www.w3.org/2000/svg">
<rect x="1.77344" y="3.89693" width="20.3604" height="15.1031" rx="1" stroke="#C2C4DA" stroke-width="2"/>
<path d="M1.77344 3.00001C1.77344 1.89544 2.66887 1.00002 3.77344 1.00002H17.0683C17.6206 1.00002 18.0683 1.44773 18.0683 2.00002V3.93438H1.77344V3.00001Z" stroke="#C2C4DA" stroke-width="2"/>
<path d="M18.2747 15.0626L14.6607 11.4486L18.2747 7.83461" stroke="#C2C4DA" stroke-width="2"/>
<line x1="15.7793" y1="11.4986" x2="27.2276" y2="11.4986" stroke="#C2C4DA" stroke-width="2"/>
</svg>
