<svg width="32" height="20" viewBox="0 0 32 20" fill="none" xmlns="http://www.w3.org/2000/svg">
<circle cx="21.1074" cy="10" r="9" stroke="#C2C4DA" stroke-width="2"/>
<path d="M26.4731 10C26.4731 12.9633 24.0709 15.3655 21.1076 15.3655C18.1444 15.3655 15.7422 12.9633 15.7422 10C15.7422 7.0368 18.1444 4.63461 21.1076 4.63461C24.0709 4.63461 26.4731 7.0368 26.4731 10Z" stroke="#C2C4DA" stroke-width="2"/>
<line x1="10.2344" y1="5.52508" x2="0.893558" y2="5.52508" stroke="#C2C4DA" stroke-width="2"/>
<line x1="9.33203" y1="10.0285" x2="2.98159" y2="10.0285" stroke="#C2C4DA" stroke-width="2"/>
<line x1="10.2344" y1="14.5629" x2="6.15754" y2="14.5629" stroke="#C2C4DA" stroke-width="2"/>
</svg>
