<svg width="31" height="30" viewBox="0 0 31 30" fill="none" xmlns="http://www.w3.org/2000/svg">
<path d="M30.401 15.7387L30.3686 15.6291C30.0195 14.5898 29.0249 13.8997 27.8923 13.9078C27.6081 13.9119 27.324 13.9566 27.0479 14.0499L24.1008 15.0445L22.1969 9.39372C24.9735 8.4438 25.0304 8.42757 25.0304 8.42757C26.2117 8.02974 27.1981 6.7916 26.8044 5.40327L26.7719 5.30178C26.4146 4.2382 25.4404 3.55621 24.2916 3.56433C24.0277 3.56839 23.7679 3.60493 23.5162 3.678L20.6015 4.65227L19.6353 1.77817C19.4161 1.12054 18.9412 0.58063 18.3201 0.272111C17.9466 0.0894351 17.5488 -0.00393253 17.1428 0.000126932C16.8668 0.00418639 16.5948 0.0488405 16.3269 0.138149C15.0035 0.584689 14.2647 1.9852 14.6503 3.32888L14.6869 3.44661L15.653 6.31665L10.0631 8.18806L9.10105 5.32614C8.73976 4.25444 7.73301 3.53592 6.60448 3.5481C6.32844 3.55216 6.05645 3.59681 5.79259 3.68612H5.78853C4.42455 4.1489 3.69385 5.62654 4.15257 6.99052L5.11466 9.84432L2.28115 10.7942C0.95777 11.2408 0.218948 12.6372 0.600538 13.9687C0.612716 14.0093 0.624894 14.0499 0.637073 14.0865C0.986186 15.1257 1.9361 15.7955 3.05245 15.7874C3.34473 15.7833 3.63701 15.7346 3.91306 15.6412C4.89951 15.3043 5.8413 14.9836 6.73438 14.6791L8.62203 20.2812L5.81289 21.2311C4.48544 21.6776 3.74662 23.0863 4.13227 24.4381C4.14445 24.4787 4.15663 24.5152 4.1688 24.5558C4.51386 25.5828 5.46377 26.2405 6.5923 26.2324C6.90082 26.2283 7.20528 26.1755 7.4935 26.0781L10.258 25.1322L11.2363 28.0429C11.5976 29.1146 12.6044 29.8331 13.7329 29.8209C14.0089 29.8169 14.2809 29.7722 14.5448 29.687C14.5488 29.687 14.5488 29.687 14.5529 29.6829C15.9169 29.2201 16.6476 27.7425 16.1889 26.3785L15.2024 23.4435L20.7801 21.5356L21.7787 24.499C22.14 25.5707 23.1468 26.2851 24.2753 26.277C24.5514 26.273 24.8233 26.2283 25.0872 26.1431C26.4106 25.6965 27.1494 24.296 26.7516 22.9036L26.7313 22.8346L25.7245 19.8468L28.8179 18.7873C28.8179 18.7873 29.7759 18.3692 30.0803 17.8983C30.4863 17.261 30.6081 16.4572 30.401 15.7387ZM13.5746 18.6087L11.6829 12.9904C13.8872 12.2394 15.7261 11.6102 17.2606 11.0865L19.1563 16.721L13.5746 18.6087Z" fill="white"/>
</svg>
